Gnome2::Canvas::index(3pm)				    User Contributed Perl Documentation 				 Gnome2::Canvas::index(3pm)



NAME
       Gnome2::Canvas - API Reference Pod Index

PAGES
       Gnome2::Canvas
       Gnome2::Canvas::Bpath
       Gnome2::Canvas::Ellipse
       Gnome2::Canvas::Group
       Gnome2::Canvas::Item
       Gnome2::Canvas::Line
       Gnome2::Canvas::PathDef
       Gnome2::Canvas::Pixbuf
       Gnome2::Canvas::RE
       Gnome2::Canvas::Rect
       Gnome2::Canvas::RichText
       Gnome2::Canvas::Shape
       Gnome2::Canvas::Text
       Gnome2::Canvas::Widget
       Gnome2::Canvas::version



perl v5.10.1								 2010-03-06						 Gnome2::Canvas::index(3pm)
