pbmtomgr(1)																	pbmtomgr(1)



NAME
       pbmtomgr - convert a portable bitmap into a MGR bitmap

SYNOPSIS
       pbmtomgr [pbmfile]

DESCRIPTION
       Reads a portable bitmap as input.  Produces a MGR bitmap as output.

SEE ALSO
       mgrtopbm(1), pbm(5)

AUTHOR
       Copyright (C) 1989 by Jef Poskanzer.



								      24 January 1989								pbmtomgr(1)
